*** Life<Cell> 14x10 ***

Generation = 0, Population = 14.
0------0--
----------
-0-------0
--0---0---
-------0--
0--0------
----------
----------
--0-------
--0-------
----------
---0------
--0-------
-------0--

Generation = 1, Population = 38.
-0----0-0-
00-----0-0
0-----0-0-
---0-0---0
0-00----0-
-00-0--0--
0--0------
--0-------
-010------
-010------
--00------
----0-----
-0-----0--
--0---0-0-

Generation = 2, Population = 38.
-10--0-0--
--0---0---
1--0---0-0
---1----0-
-0---0----
01---00---
--0----0--
0-10------
0---0-----
0--10-----
----------
-00--0-0--
0---0-----
---0-0-0-0

Generation = 3, Population = 62.
0*-00-0-0-
0-1----0-0
-0-10---0-
000*00----
-10001--0-
1---0-1---
--1--0--0-
1--1---0--
-01010----
101*-0----
000000-0--
-110----0-
--0--0---0
0-0-0-----

Generation = 4, Population = 34.
-*011--0--
1--0------
11--------
1-1.--0---
0-11---0-0
----1--0--
-0-------0
--1*--0---
0-*---00--
---.--00--
----------
----------
0-----0---
--1------0

*** Life<Cell> 8x8 ***

Generation = 0, Population = 19.
-0------
000--0--
----0---
--0-0-0-
-0-----0
-----000
-00-0--0
0-------

Generation = 1, Population = 27.
-1---0--
1110--0-
00-01-0-
----1---
0---0001
--0--1-1
-11----1
--0-0--0

Generation = 2, Population = 30.
-*-00---
------10
--0---10
-0-----0
-000-1--
0-10-*0-
0**0000-
--1--001

Generation = 3, Population = 34.
0.-11000
-11000--
---0-0-1
0100-0-1
--1--*-1
1-*10.-1
-..1--1-
0-*---1*

Generation = 4, Population = 26.
-*--*1-1
-*--11--
0-0-1--*
1-1-----
---0-*--
--**1*-*
-..*-0*1
--.--0-*

*** Life<Cell> 12x12 ***

Generation = 0, Population = 7.
---0---00---
------------
--------0---
------------
----------0-
------------
------------
0-----------
------------
------------
------------
--0---------

Generation = 1, Population = 21.
--0-0-0110--
---0---0----
-------0-0--
--------0-0-
---------0-0
----------0-
0-----------
-0----------
0-----------
------------
--0---------
-0-0--------

Generation = 2, Population = 19.
-0-0--1*-10-
------------
---0--010---
------------
------------
0-----------
----------0-
0-0---------
------------
0-0---------
------------
0-0-0-------

Generation = 3, Population = 32.
0---00*.-*10
-0------000-
--0-001-10--
---0--000---
0-----------
-0--------0-
--0------0-0
---0------0-
------------
---0--------
----0-------
-----0------

Generation = 4, Population = 20.
---01-..-.*1
-------0----
---01--1*---
0-----------
---0--000-0-
------------
--------0---
----0-------
----------0-
--0---------
------------
------0-----

*** Life<Cell> 14x10 ***

Generation = 0, Population = 7.
----------
-0--------
----------
--0-------
---------0
----------
------0---
--0-------
----------
----------
--------0-
0---------
----------
----------

Generation = 1, Population = 26.
-0--------
0-0-------
-00-------
-0-0-----0
--0-----0-
------0--0
--0--0-0--
-0-0--0---
--0-------
--------0-
0------0-0
-0------0-
0---------
----------

Generation = 2, Population = 23.
----------
--10------
---------0
01--0-----
------00-0
----------
----0---00
0---0-----
------0-0-
0-0-------
------0---
0-0-------
--------0-
0---------

Generation = 3, Population = 59.
--00------
-0*10----0
00000---0-
1*00-000--
00--0011--
----0-000-
0--010-011
-0-0100--0
--0-00---0
---0----0-
-----0-0--
---0--0-0-
--0----0-0
-0------0-

Generation = 4, Population = 19.
---------0
--.--0----
------0---
*.1---1---
-----1-*--
-0--------
--0-----*-
--0---1---
---------1
----------
----0-0-0-
----0-----
----------
0---------

*** Life<Cell> 8x8 ***

Generation = 0, Population = 2.
------0-
-0------
--------
--------
--------
--------
--------
--------

Generation = 1, Population = 7.
-0---0-0
0-0---0-
-0------
--------
--------
--------
--------
--------

Generation = 2, Population = 5.
----0-0-
---0----
------0-
-0------
--------
--------
--------
--------

Generation = 3, Population = 10.
-------0
--0-----
-0-0-0-0
0-0---0-
-0------
--------
--------
--------

Generation = 4, Population = 6.
--0---0-
-----0--
------0-
--------
------0-
-0------
--------
--------

*** Life<Cell> 12x12 ***

Generation = 0, Population = 26.
----------00
--0-0------0
-0-00-------
-0-00------0
---0-----0-0
---------0--
0----0------
------------
-----0--0---
-------0---0
-----------0
-0--0---0---

Generation = 1, Population = 60.
--0-0----01-
---010-----1
010-10------
01-1-0---001
-001----01-1
0--0-0--0100
-0--0-0--0--
0-------0---
----0-0--0-0
-----00---01
-0--0--00-01
0-00-0-0-0-0

Generation = 2, Population = 66.
-0-01---01*-
0001--0--0--
-*1--10--00-
-*-*010-----
0--*0--0-*--
-0-10--0----
0-0--0-001-0
-------0-0-0
0--0-010--01
-0--01--0--*
-----0--10-*
-0110--10-01

Generation = 3, Population = 68.
-10-*0001**0
1-1---10--0-
-.-0--100-10
-*0.1*----0-
-00.1--1-.0-
0-0---0----0
-0-----1---1
--00----010-
--0-0-----1*
--0-1*--1--*
--00010-*10*
01--1-0*-01-

Generation = 4, Population = 63.
-*--.-11-**1
-0*-1-*10--1
0.1----11-*1
0*-.-*--00--
--1.*---0.1-
--1100-0---1
--00-----1-*
---1----1--0
-0-01------*
-0-0*.-0*-0.
0----*-0.*1*
1*--*0-*0---

*** Life<Cell> 14x10 ***

Generation = 0, Population = 10.
--0-------
--------0-
----------
--------0-
----------
----------
-----0----
----------
----------
----0---00
----------
-----0-0--
---0------
----------

Generation = 1, Population = 34.
-0-0----0-
--0----0-0
----------
-------0-0
--------0-
-----0----
----0-0---
-----0----
----0---00
---0-0-011
----00-000
---00---0-
--0-00-0--
---0------

Generation = 2, Population = 29.
0-0-0-----
------0-0-
--0-------
------0-0-
-----0----
--------0-
---0---0--
----0---00
-----0----
--0--1---*
---0------
---110-01-
-0---1----
-----0-0--

Generation = 3, Population = 48.
-----00-0-
0---00---0
-0-0------
--0------0
----0-----
---0-0---0
--0---0-00
--------11
--0--10-0-
-0--0*0-1.
---1---000
-00----1*0
0-00--0-0-
-0--01--0-

Generation = 4, Population = 29.
0-----1---
----1-----
--0--0----
----0---0-
--0-------
----0----1
-0-------1
-----0-0*-
---0------
0---1.-0-.
-----0----
-1-1----.-
---1---0--
----1*-010

*** Life<Cell> 8x8 ***

Generation = 0, Population = 10.
0-0-0---
-----0--
--------
---0----
-------0
--0-0---
0------0
--------

Generation = 1, Population = 21.
--------
0-0---0-
---0-0--
--0-0--0
--000-0-
00---0--
-00-0-0-
0------0

Generation = 2, Population = 23.
0-0---0-
-------0
0-0-0--0
-01-1---
0----0--
1-000-0-
0-1--0--
--0-0---

Generation = 3, Population = 24.
---0-0--
----0--1
-01-1001
01--*--0
1--00---
----1--0
1---0---
001-----

Generation = 4, Population = 29.
--0-0-00
-00-10-*
--*-*--*
----.--1
*-0110--
-----00-
*-1010-0
--*00---

*** Life<Cell> 12x12 ***

Generation = 0, Population = 18.
-----------0
-0----------
------0-----
---0------0-
--------0---
0---0---0---
-----00---0-
------------
-0--0-------
------------
---------0-0
--0-0-------

Generation = 1, Population = 58.
-0--------0-
0-0---0----0
-0-0-0-0--0-
--0-0-0-00-0
0--00--0100-
-0-0--00100-
0----11000-0
-0--000---0-
0-00-0------
-0--0----0-0
--0-0---0---
-0---0---0-0

Generation = 2, Population = 33.
------0--0--
----------0-
----0------0
0---10------
-----00-----
0--1--------
-0-0---11---
0---1---0---
--11-1---000
--0-1-------
-0--1--0-0--
0-----0-----

Generation = 3, Population = 50.
-----0-00---
----0-0-----
0--01-------
-0-0-------0
---0--10----
--0*00001---
0--1--1*-0--
--00----1-00
00-*--0--1-1
--10*--0--00
---0*0----0-
----00---0--

Generation = 4, Population = 39.
------0110--
0---10--0---
--0--00----0
------00--0-
-0---------0
001.----*---
-00----.---0
--111-----1-
11-.-1------
0-*-.---0---
----.-00--1-
------0-0---

*** Life<Cell> 14x10 ***

Generation = 0, Population = 16.
-------0--
----------
------0-0-
-0-0------
------0--0
0-----0---
----------
--------0-
----0-----
----------
-0-0------
-0--0-----
-----0----
----------

Generation = 1, Population = 45.
------0-0-
------000-
-0-0-0---0
0---0---00
00-0-0100-
-0---010-0
0-----0-0-
----0--0-0
---0-0--0-
-0-00-----
01--------
010-------
-0----0---
-----0----

Generation = 2, Population = 46.
-----01010
-0-0------
----0--001
10-0-00---
----0-*1-0
01000-----
----0-1--0
0---------
-001--0---
-1--1---0-
-*-00-----
--10--0---
-1-----0--
-0--0-----

Generation = 3, Population = 67.
-0-001---1
0----00---
0--0---1-*
*1---1-00-
--0010**--
1---10-0--
-00-1--00-
--000----0
---*-0-00-
0--0*000-0
0*0--00-0-
-1*--0----
0*-00---0-
0100-0-0--

Generation = 4, Population = 41.
---1----1-
1-----1---
--0-0--*0.
**---*011-
--1-*-..--
----*-1---
-1-0--1-1-
---1----0-
0--.-10-10
1---.-1---
-.---1-0--
0*.--1----
-.--10---0
-*--0-----

*** Life<Cell> 8x8 ***

Generation = 0, Population = 14.
--------
0-------
------00
-----00-
00000---
-0------
0-------
-0-0----

Generation = 1, Population = 22.
0-------
-0----00
0------1
0000-1--
11--1-0-
01-00---
-0-0----
----0---

Generation = 2, Population = 31.
------00
0-0--01-
1000-0-*
11-10--0
**-0*0-0
-*---00-
-1-10---
-0---0--

Generation = 3, Population = 37.
0-0----1
101-0--0
*11-010*
**0*-10-
..--.-01
-*0-0-1-
0--*100-
0100--0-

Generation = 4, Population = 40.
10100-0*
*1*-1---
.-*0-*1*
*.1*0-10
*.-0*-1*
-*1010--
110.*-10
------10

*** Life<Cell> 12x12 ***

Generation = 0, Population = 15.
----0-----0-
---------0--
-----0-0----
------------
0-0---------
0-----------
--------0---
-------0----
-00--------0
------------
-----0------
--0---------

Generation = 1, Population = 42.
---0-0-----0
----00-00---
----0---00--
0-0--0-0----
1--0--------
100-----0---
0--------0--
-00---0----0
0110---0--0-
-00--0-----0
--0-0-0-----
-0-0-0------

Generation = 2, Population = 52.
--0-01000-0-
-------1---0
0-0010-0-10-
1--------0--
--0-00-00---
*-1----0----
10----0---00
0----0---0--
1--100--00-0
--1----0----
-010---0---0
0-0-0-------

Generation = 3, Population = 63.
-0--1--11---
0--0-----00-
1-1--1-1--1-
*0-0-----1--
-01-11--1---
*0*000-1--00
*1--------11
---0-1---1--
*1-*--0-1---
0-*00001-0--
-1-1--010-0-
-010-0-0---0

Generation = 4, Population = 47.
--0--10**-0-
1----0---1-0
-0-01---01*0
*------0----
11----0---00
.-.-1----0--
*---0--0----
--01-------0
**1.-010-0--
1-.---------
-*---0--10--
0-----01----

*** Life<Cell> 14x10 ***

Generation = 0, Population = 9.
----------
----------
----0-----
----------
--0------0
---0------
----------
----------
0--------0
0---------
----------
---------0
----------
----0-----

Generation = 1, Population = 26.
----------
----0-----
---0-0----
--0-0----0
-0------0-
----0----0
---0------
0--------0
10------0-
10-------0
0--------0
--------0-
----0----0
---0-0----

Generation = 2, Population = 30.
----0-----
----------
------0--0
---0------
0------0-0
-0---0----
0-0-------
1--0------
*-0----0-0
*-0------1
1--------1
0---0--0-0
----------
--0-0-0--0

Generation = 3, Population = 57.
---0-0----
----0-0--0
---0-0-00-
0-0-0-00--
---0-00---
0---0-00-0
10---0----
-00-0--0-0
*-1---0--1
*-10---00-
-00-0--00-
10-0-00--1
0-0---00--
-0-----00-

Generation = 4, Population = 33.
--0-0----0
---0------
0-------1-
----------
-----110-0
1------1--
----0-----
1--------1
*0--00-0-*
*0*1------
1---------
----01-0--
1--------0
--------10

*** Life<Cell> 8x8 ***

Generation = 0, Population = 20.
-00-00--
0-0--00-
--0-0---
----0---
0----00-
0------0
--00----
--0--0--

Generation = 1, Population = 36.
-1--1---
-0-00-10
001-1-0-
0-001-0-
10---11-
1000-0--
00-100-0
-01-0-0-

Generation = 2, Population = 27.
0*0-*000
--011--1
-1------
-----0-0
*-0----0
*---0--0
-1--1-0-
--*010--

Generation = 3, Population = 30.
1*-0*---
00-----*
0--010--
000-1--1
.--0011-
*-0010-1
-----0--
--*-*1--

Generation = 4, Population = 34.
-*-1.0-0
1-0--01.
-1-1*10-
--1--0--
*00--**0
.-11*10-
0--11-00
-0.-*-0-

*** Life<Cell> 12x12 ***

Generation = 0, Population = 14.
--0---------
---0--------
--0---------
------------
------00----
-----0------
------------
--0---------
----0---00--
0---0--00---
------------
------------

Generation = 1, Population = 36.
-0----------
--0-0-------
-0----------
--0---00----
------110---
----0--0----
--0--0------
-0-00---00--
0-0010---10-
-0-01001----
0---0--00---
------------

Generation = 2, Population = 43.
0---0-------
-0---0------
0-0-0-00----
---0-0------
--0-00--10--
--00---1----
----0-0000--
-----0-01---
--1----0--10
0-0--1---00-
----1---10--
0---0--00---

Generation = 3, Population = 59.
---0--------
0---0--0----
-0-0--110---
0-0--1-000--
-01-1-1-*10-
-0-100-*0---
--0--01-110-
--0---01--00
00*0--01---1
--10--01----
--00*-------
-0-01001----

Generation = 4, Population = 42.
0-0----0----
---0-0-1----
0-0---*-----
--1---------
---0*---.*10
01-*1--.10--
--1---------
0-----1-----
1-.-101*0--*
0-*1-1--0--0
----.-------
0-0-*--*0---

*** Life<Cell> 14x10 ***

Generation = 0, Population = 13.
----------
----------
-0--------
--0-0-----
----------
00---0----
----------
-------0-0
---------0
--0-0---0-
----------
----------
---0------
----------

Generation = 1, Population = 35.
----------
-0--------
0---0-----
-----0----
000-00----
110-0-0---
00---0-0-0
------0--1
--0-0--0-1
-0---0-0--
--0-0---0-
---0------
--0-0-----
---0------

Generation = 2, Population = 34.
-0--------
--0-0-----
---0------
-00-010---
-1--------
*---1----0
---------1
000-0--00-
-------1-*
0-0-0--1-0
---0-----0
--0-0---0-
-0---0----
----------

Generation = 3, Population = 53.
0---0-----
---0-0----
-00-000---
0-101-10--
-*---00--0
.--0-0--01
-00----0-*
1-1--00-11
-0----0-0*
---0-00*--
0-0-0--0-1
---0---0--
0-----0-0-
-0---0----

Generation = 4, Population = 39.
-0--------
00---1----
-1---1----
------*100
-*-------1
.----1--1*
-1-------.
--*001-0-*
---0-0-1-*
00--011.--
----------
-------1-0
---0---0-0
--0-0---0-

*** Life<Cell> 8x8 ***

Generation = 0, Population = 24.
--0--0-0
-00-0-00
0-000-00
0------0
----00--
------00
0-0---0-
-----0--

Generation = 1, Population = 32.
--10--01
-11010-1
10-----1
1000-0-1
0--011--
0-0-0--1
---0--1-
0-0-0---

Generation = 2, Population = 25.
------1-
--*1-10-
-10-0-0-
*1--01-*
--0-*-0-
1---1---
--0-00--
---0-00-

Generation = 3, Population = 30.
--10--*1
--**1*11
---01-1-
*-001*-*
----*1--
-0-0--0-
00-0----
----0-10

Generation = 4, Population = 27.
-0----.-
-1..*.--
1-01*-*1
.-11-.0.
0000.--0
-1-1---1
1--1---0
00----*1

*** Life<Cell> 12x12 ***

Generation = 0, Population = 24.
---0---0----
-00--0------
-0--------0-
----0----0--
------------
0--0-00-----
----00------
------0-----
--0------0--
--0----0--0-
----0-----0-
-----0------

Generation = 1, Population = 60.
-0--000-0---
0-1-0-00--0-
01--00-----0
-0-0-0--0---
0--0000--0--
-00-0-10----
0---1-0-----
--0-0--0-0--
-010--000---
-0100-0-0-10
--00---0-010
------0---0-

Generation = 2, Population = 58.
---0---0-00-
1------1-0--
-------00---
01-1---0---0
-0--11----0-
0110-0*100--
---0--10-0--
0-1010010-0-
0---00-1--00
0---1-1-10--
------0-01--
--00-0----1-

Generation = 3, Population = 69.
0-0-0-01--10
-0-0--0-01--
-1-0--011--0
1----001----
0--0*---0---
1*--0-.*----
-00--0*1-1--
1-*1*11-101-
-01-1--*0--1
10-0*0*0---0
0-000-1-----
-011----0--0

Generation = 4, Population = 53.
-0-0---*--*1
-111-0---*--
-*-10-1*--0-
*----11-0--0
--01*-00-0--
-.--1-.*-0--
0---1-.-0*--
--.-.*---1*-
0----00.---*
----.-.---11
1----0*-0---
-1*---00-01-

*** Life<Cell> 14x10 ***

Generation = 0, Population = 4.
----------
----------
0---------
--0-------
----------
-------0--
----------
----------
----------
----------
----------
----------
----------
---------0

Generation = 1, Population = 13.
----------
0---------
-00-------
00-0------
--0----0--
------0-0-
-------0--
----------
----------
----------
----------
----------
---------0
--------0-

Generation = 2, Population = 14.
0---------
--0-------
0-1-------
1---0--0--
0---------
--0--0---0
----------
-------0--
----------
----------
----------
---------0
----------
-------0--

Generation = 3, Population = 42.
-00-------
-010------
1-*00--0--
-000-00-0-
100-00-0-0
00-00-0-0-
--0--0-0-0
------0-0-
-------0--
----------
---------0
--------0-
-------0-0
------0-0-

Generation = 4, Population = 14.
0---------
-------0--
--.-1-----
1-----1---
----------
---1-----0
0---------
--0-------
----------
-------0-0
----------
---------0
----------
-----0-0--

*** Life<Cell> 8x8 ***

Generation = 0, Population = 5.
--------
---0----
------0-
--------
-------0
-------0
--------
------0-

Generation = 1, Population = 17.
---0----
--0-0-0-
---0-0-0
------00
------01
------01
------00
-----0-0

Generation = 2, Population = 17.
------0-
-0---0--
----0--1
---0---1
-----01*
-----01*
-------1
----0-01

Generation = 3, Population = 20.
-0-----0
0-0----0
-0----0*
--0--0--
---00-*.
----0-*.
----000-
---0--1-

Generation = 4, Population = 19.
------01
---0----
--0---1*
------01
---1-0*.
-----0**
------11
--0---*1
